.............
----------------------------------------------------------------------
Ran 13 tests in 14.250s

OK
Name             Stmts   Miss Branch BrPart  Cover   Missing
------------------------------------------------------------
Collatz.py          42      0     16      0   100%
TestCollatz.py      60      0      0      0   100%
------------------------------------------------------------
TOTAL              102      0     16      0   100%
