..................
----------------------------------------------------------------------
Ran 18 tests in 1.489s

OK
Name             Stmts   Miss Branch BrPart  Cover   Missing
------------------------------------------------------------
Collatz.py          67      3     26      3    94%   35-36, 81, 34->35, 44->41, 80->81
TestCollatz.py      75      0      0      0   100%
------------------------------------------------------------
TOTAL              142      3     26      3    96%
