....................
----------------------------------------------------------------------
Ran 20 tests in 0.442s

OK
Name             Stmts   Miss Branch BrPart  Cover   Missing
------------------------------------------------------------
Collatz.py          57      0     26      0   100%
TestCollatz.py      83      0      0      0   100%
------------------------------------------------------------
TOTAL              140      0     26      0   100%
